…
现在我们的数据框中，包含了每个文档的关键词。每个关键词列表中，包含freq和ngram两列，freq代表词频，ngram代表多少个n元，2元就是“上海市-闵行区”这种形式，1元就是“上海市”、“闵行区”这种形式。 现在，我要从中挑选每篇文章最重要的3个关键词。挑选规则是：词频必须大于1，在此基础上，n元越高越好。

``` r
tr_keyword %>% 
  unnest() %>% 
  group_by(id) %>% 
  filter(freq > 1) %>% 
  top_n(3,ngram) %>% 
  ungroup() -> top3_keywords

top3_keywords
```

    ## # A tibble: 3,496 x 4
    ##       id keyword       ngram  freq
    ##    <int> <chr>         <int> <int>
    ##  1     1 上海市-长宁区     2     2
    ##  2     1 长宁区            1     2
    ##  3     1 上海市-静安区     2     2
    ##  4     4 客户              1     4
    ##  5     5 招商银行          1     2
    ##  6     6 事业部            1     3
    ##  7     7 房地产            1     2
    ##  8     9 技术              1     3
    ##  9    10 电商              1     2
    ## 10    10 协调              1     2
    ## # ... with 3,486 more rows
…
